/Users/ilyas/IdeaProjects/zherkezekadmin/src/main/java/utils/JSONCreater.java
/Users/ilyas/IdeaProjects/zherkezekadmin/src/main/java/controllers/Id.java
/Users/ilyas/IdeaProjects/zherkezekadmin/src/main/java/controllers/MainController.java
/Users/ilyas/IdeaProjects/zherkezekadmin/src/main/java/start/Start.java
/Users/ilyas/IdeaProjects/zherkezekadmin/src/main/java/controllers/Loading.java
/Users/ilyas/IdeaProjects/zherkezekadmin/src/main/java/controllers/InfoController.java
/Users/ilyas/IdeaProjects/zherkezekadmin/src/main/java/utils/Prop.java
/Users/ilyas/IdeaProjects/zherkezekadmin/src/main/java/controllers/AddPlotController.java
/Users/ilyas/IdeaProjects/zherkezekadmin/src/main/java/controllers/AskQuestionController.java
/Users/ilyas/IdeaProjects/zherkezekadmin/src/main/java/utils/JSONService.java
/Users/ilyas/IdeaProjects/zherkezekadmin/src/main/java/pojo/Plot.java
/Users/ilyas/IdeaProjects/zherkezekadmin/src/main/java/pojo/Question.java
/Users/ilyas/IdeaProjects/zherkezekadmin/src/main/java/utils/URLConnector.java
/Users/ilyas/IdeaProjects/zherkezekadmin/src/main/java/controllers/SettingController.java
/Users/ilyas/IdeaProjects/zherkezekadmin/src/main/java/listeners/FilterListener.java
/Users/ilyas/IdeaProjects/zherkezekadmin/src/main/java/listeners/MenuItemListener.java
/Users/ilyas/IdeaProjects/zherkezekadmin/src/main/java/controllers/QuestionController.java
/Users/ilyas/IdeaProjects/zherkezekadmin/src/main/java/controllers/ListController.java
/Users/ilyas/IdeaProjects/zherkezekadmin/src/main/java/controllers/AuthorizeController.java
